scEyeriss/Low_Eyeriss.vcd
$date
     Feb 01, 2025       11:44:35
$end

$version
 SystemC 2.3.3-Accellera --- Jan 31 2025 18:05:27
$end

$timescale
     1 ps
$end

$scope module SystemC $end
$scope module sc_eyeriss_i $end
$var wire    1  aaaaa  in_vld       $end
$var wire    8  aaaab  w_wdata(0) [7:0]  $end
$var wire    8  aaaac  w_wdata(1) [7:0]  $end
$var wire    8  aaaad  w_wdata(2) [7:0]  $end
$var wire    8  aaaae  ifmap_wdata(0) [7:0]  $end
$var wire    8  aaaaf  ifmap_wdata(1) [7:0]  $end
$var wire    8  aaaag  ifmap_wdata(2) [7:0]  $end
$var wire    1  aaaah  enable       $end
$var wire    1  aaaai  in_vld_PE       $end
$var wire    8  aaaaj  weight_out_PE(0)(0) [7:0]  $end
$var wire    8  aaaak  ifmap_out_PE(0)(0) [7:0]  $end
$var wire   12  aaaal  ofmap_out(0)(0) [11:0]  $end
$var wire    1  aaafc  layer_done       $end
$scope module config_i $end
$var wire    4  aaaex  filter_width_cf [3:0]  $end
$var wire    4  aaaey  filter_height_cf [3:0]  $end
$var wire    1  aaaez  conf_done       $end
$var wire   32  aaafa  conf_bits [31:0]  $end
$var wire    1  aaafb  cpu_trigger       $end
$upscope $end
$scope module glb_i $end
$var wire    1  aaaan  w_done       $end
$var wire    1  aaaao  channel_done       $end
$var wire    1  aaaap  filter_done       $end
$var wire   10  aaaaq  ofmap_channel [9:0]  $end
$var wire   12  aaaeg  ofmap_result [11:0]  $end
$var wire    1  aaaeh  layer_done       $end
$var wire   12  aaaei  ofmap_out(2)(0) [11:0]  $end
$var wire   12  aaaej  ofmap_out(1)(0) [11:0]  $end
$var wire   12  aaaek  ofmap_out(0)(0) [11:0]  $end
$var wire    1  aaael  out_vld(0)(0)       $end
$var wire    8  aaaem  ifmap_wdata(2) [7:0]  $end
$var wire    8  aaaen  ifmap_wdata(1) [7:0]  $end
$var wire    8  aaaeo  ifmap_wdata(0) [7:0]  $end
$var wire    8  aaaep  w_wdata(2) [7:0]  $end
$var wire    8  aaaeq  w_wdata(1) [7:0]  $end
$var wire    8  aaaer  w_wdata(0) [7:0]  $end
$var wire    1  aaaes  in_vld       $end
$var wire    8  aaaet  ifmap_rdata [7:0]  $end
$var wire   32  aaaeu  addr_ifmpa_in [31:0]  $end
$var wire    8  aaaev  w_rdata [7:0]  $end
$var wire   32  aaaew  addr_w_in [31:0]  $end
$upscope $end
$scope module pe_array_i $end
$var wire   12  aaadd  ofmap_out(0)(0) [11:0]  $end
$var wire    1  aaade  out_vld(0)(0)       $end
$var wire    8  aaadf  ifmap_out_PE(2)(1) [7:0]  $end
$var wire    8  aaadg  ifmap_out_PE(2)(0) [7:0]  $end
$var wire    8  aaadh  ifmap_out_PE(1)(1) [7:0]  $end
$var wire    8  aaadi  ifmap_out_PE(1)(0) [7:0]  $end
$var wire    8  aaadj  ifmap_out_PE(0)(1) [7:0]  $end
$var wire    8  aaadk  ifmap_out_PE(0)(0) [7:0]  $end
$var wire    8  aaadl  weight_out_PE(0)(0) [7:0]  $end
$var wire    1  aaadm  in_vld_PE       $end
$var wire    1  aaadn  enable       $end
$scope module PE_0_0 $end
$var wire   12  aaacx  ofmap_out [11:0]  $end
$var wire    8  aaacy  ifmap_in [7:0]  $end
$var wire    8  aaacz  w_in [7:0]  $end
$var wire    1  aaada  out_vld       $end
$var wire    1  aaadb  in_vld       $end
$var wire    1  aaadc  enable       $end
$upscope $end
$scope module PE_0_1 $end
$var wire   12  aaabd  ofmap_out [11:0]  $end
$var wire    8  aaabe  ifmap_in [7:0]  $end
$var wire    8  aaabf  w_in [7:0]  $end
$var wire    1  aaabg  out_vld       $end
$var wire    1  aaabh  in_vld       $end
$var wire    1  aaabi  enable       $end
$upscope $end
$scope module PE_0_2 $end
$var wire   12  aaaas  ofmap_out [11:0]  $end
$var wire    8  aaaat  ifmap_in [7:0]  $end
$var wire    8  aaaau  w_in [7:0]  $end
$var wire    1  aaaav  out_vld       $end
$var wire    1  aaaaw  in_vld       $end
$upscope $end
$scope module PE_1_0 $end
$var wire   12  aaacr  ofmap_out [11:0]  $end
$var wire    8  aaacs  ifmap_in [7:0]  $end
$var wire    8  aaact  w_in [7:0]  $end
$var wire    1  aaacu  out_vld       $end
$var wire    1  aaacv  in_vld       $end
$var wire    1  aaacw  enable       $end
$scope module mac_i $end
$var wire   12  aaacg  psum_tmp_MACtoReg [11:0]  $end
$var wire    8  aaach  psum_tmp_RegtoMAC [7:0]  $end
$var wire    8  aaaci  ifmap [7:0]  $end
$var wire    8  aaacj  weight [7:0]  $end
$upscope $end
$scope module regfile_i $end
$var wire    8  aaack  psum_tmp_RegtoMAC [7:0]  $end
$var wire    8  aaacl  in [7:0]  $end
$var wire    8  aaacm  w [7:0]  $end
$var wire   12  aaacn  psum_tmp_MACtoReg [11:0]  $end
$var wire    8  aaaco  ifmap_in [7:0]  $end
$var wire    8  aaacp  w_in [7:0]  $end
$var wire    1  aaacq  in_vld       $end
$upscope $end
$upscope $end
$scope module PE_2_0 $end
$var wire   12  aaaca  ofmap_out [11:0]  $end
$var wire    8  aaacb  ifmap_in [7:0]  $end
$var wire    8  aaacc  w_in [7:0]  $end
$var wire    1  aaacd  out_vld       $end
$var wire    1  aaace  in_vld       $end
$var wire    1  aaacf  enable       $end
$upscope $end
$scope module PE_3_0 $end
$var wire    8  aaabv  ifmap_in [7:0]  $end
$var wire    8  aaabw  w_in [7:0]  $end
$var wire    1  aaabx  out_vld       $end
$var wire    1  aaaby  in_vld       $end
$var wire    1  aaabz  enable       $end
$upscope $end
$scope module PE_5_0 $end
$var wire   12  aaabp  ofmap_out [11:0]  $end
$var wire    8  aaabq  ifmap_in [7:0]  $end
$var wire    8  aaabr  w_in [7:0]  $end
$var wire    1  aaabs  out_vld       $end
$var wire    1  aaabt  in_vld       $end
$var wire    1  aaabu  enable       $end
$upscope $end
$scope module PE_5_1 $end
$var wire   12  aaaax  ofmap_out [11:0]  $end
$var wire    8  aaaay  ifmap_in [7:0]  $end
$var wire    8  aaaaz  w_in [7:0]  $end
$var wire    1  aaaba  out_vld       $end
$var wire    1  aaabb  in_vld       $end
$var wire    1  aaabc  enable       $end
$upscope $end
$scope module PE_6_0 $end
$var wire   12  aaabj  ofmap_out [11:0]  $end
$var wire    8  aaabk  ifmap_in [7:0]  $end
$var wire    8  aaabl  w_in [7:0]  $end
$var wire    1  aaabm  out_vld       $end
$var wire    1  aaabn  in_vld       $end
$var wire    1  aaabo  enable       $end
$upscope $end
$upscope $end
$scope module scheduler_i $end
$var wire    8  aaaam  count_pass [7:0]  $end
$var wire    1  aaaar  start_sche       $end
$var wire    8  aaado  ifmap_out_PE(2)(1) [7:0]  $end
$var wire    8  aaadp  ifmap_out_PE(2)(0) [7:0]  $end
$var wire    8  aaadq  ifmap_out_PE(1)(1) [7:0]  $end
$var wire    8  aaadr  ifmap_out_PE(1)(0) [7:0]  $end
$var wire    8  aaads  ifmap_out_PE(0)(1) [7:0]  $end
$var wire    8  aaadt  ifmap_out_PE(0)(0) [7:0]  $end
$var wire    8  aaadu  weight_out_PE(2)(0) [7:0]  $end
$var wire    8  aaadv  weight_out_PE(1)(0) [7:0]  $end
$var wire    8  aaadw  weight_out_PE(0)(0) [7:0]  $end
$var wire    1  aaadx  in_vld_PE       $end
$var wire    1  aaady  enable       $end
$var wire    8  aaadz  ifmap(2) [7:0]  $end
$var wire    8  aaaea  ifmap(1) [7:0]  $end
$var wire    8  aaaeb  ifmap(0) [7:0]  $end
$var wire    8  aaaec  weight(2) [7:0]  $end
$var wire    8  aaaed  weight(1) [7:0]  $end
$var wire    8  aaaee  weight(0) [7:0]  $end
$var wire    1  aaaef  in_vld       $end
$upscope $end
$upscope $end
$scope module tb_i $end
$var wire   12  aaafd  ofmap_result [11:0]  $end
$var wire    1  aaafe  layer_done       $end
$var wire    8  aaaff  ifmap_rdata [7:0]  $end
$var wire   32  aaafg  addr_ifmpa_in [31:0]  $end
$var wire    8  aaafh  w_rdata [7:0]  $end
$var wire   32  aaafi  addr_w_in [31:0]  $end
$var wire    1  aaafj  conf_done       $end
$var wire   32  aaafk  conf_bits [31:0]  $end
$var wire    1  aaafl  cpu_trigger       $end
$var wire    1  aaafm  rst       $end
$var wire    1  aaafn  clk       $end
$upscope $end
$upscope $end
$enddefinitions  $end

$comment
All initial values are dumped below at time 0 sec = 0 timescale units.
$end

$dumpvars
0aaaaa
b0 aaaab
b0 aaaac
b0 aaaad
b0 aaaae
b0 aaaaf
b0 aaaag
0aaaah
0aaaai
b0 aaaaj
b0 aaaak
b0 aaaal
b0 aaaam
0aaaan
0aaaao
0aaaap
b0 aaaaq
0aaaar
b0 aaaas
b0 aaaat
b0 aaaau
0aaaav
0aaaaw
b0 aaaax
b0 aaaay
b0 aaaaz
0aaaba
0aaabb
0aaabc
b0 aaabd
b0 aaabe
b0 aaabf
0aaabg
0aaabh
0aaabi
b0 aaabj
b0 aaabk
b0 aaabl
0aaabm
0aaabn
0aaabo
b0 aaabp
b0 aaabq
b0 aaabr
0aaabs
0aaabt
0aaabu
b0 aaabv
b0 aaabw
0aaabx
0aaaby
0aaabz
b0 aaaca
b0 aaacb
b0 aaacc
0aaacd
0aaace
0aaacf
b0 aaacg
b0 aaach
b0 aaaci
b0 aaacj
b0 aaack
b0 aaacl
b0 aaacm
b0 aaacn
b0 aaaco
b0 aaacp
0aaacq
b0 aaacr
b0 aaacs
b0 aaact
0aaacu
0aaacv
0aaacw
b0 aaacx
b0 aaacy
b0 aaacz
0aaada
0aaadb
0aaadc
b0 aaadd
0aaade
b0 aaadf
b0 aaadg
b0 aaadh
b0 aaadi
b0 aaadj
b0 aaadk
b0 aaadl
0aaadm
0aaadn
b0 aaado
b0 aaadp
b0 aaadq
b0 aaadr
b0 aaads
b0 aaadt
b0 aaadu
b0 aaadv
b0 aaadw
0aaadx
0aaady
b0 aaadz
b0 aaaea
b0 aaaeb
b0 aaaec
b0 aaaed
b0 aaaee
0aaaef
b0 aaaeg
0aaaeh
b0 aaaei
b0 aaaej
b0 aaaek
0aaael
b0 aaaem
b0 aaaen
b0 aaaeo
b0 aaaep
b0 aaaeq
b0 aaaer
0aaaes
b0 aaaet
b0 aaaeu
b1 aaaev
b0 aaaew
b0 aaaex
b0 aaaey
0aaaez
b0 aaafa
0aaafb
0aaafc
b0 aaafd
0aaafe
b0 aaaff
b0 aaafg
b1 aaafh
b0 aaafi
0aaafj
b0 aaafk
0aaafl
1aaafm
1aaafn
$end

#5000
0aaafn

#10000
1aaafb
1aaafl
0aaafm
1aaafn

#15000
0aaafn

#20000
b1010000000101000000010101010101 aaafa
b1010000000101000000010101010101 aaafk
1aaafn

#25000
0aaafn

#30000
b10100000011001000000000001000000 aaafa
b10100000011001000000000001000000 aaafk
1aaafn

#35000
0aaafn

#40000
b11110000000 aaafa
b11110000000 aaafk
1aaafn

#45000
0aaafn

#50000
b1010000000101000000010101010101 aaafa
0aaafb
b1010000000101000000010101010101 aaafk
0aaafl
1aaafn

#55000
0aaafn

#60000
b101 aaaex
b101 aaaey
1aaaez
b10100000011001000000000001000000 aaafa
1aaafj
b10100000011001000000000001000000 aaafk
1aaafn

#65000
0aaafn

#70000
b11110000000 aaafa
b11110000000 aaafk
1aaafn

#75000
0aaafn

#80000
b1 aaaeu
b1 aaaew
b1 aaafg
b1 aaafi
1aaafn

#85000
0aaafn

#90000
b10 aaaeu
b0 aaaev
b10 aaaew
b10 aaafg
b0 aaafh
b10 aaafi
1aaafn

#95000
0aaafn

#100000
b1 aaaet
b11 aaaeu
b1 aaaev
b11 aaaew
b1 aaaff
b11 aaafg
b1 aaafh
b11 aaafi
1aaafn

#105000
0aaafn

#110000
b0 aaaet
b100 aaaeu
b0 aaaev
b100 aaaew
b0 aaaff
b100 aaafg
b0 aaafh
b100 aaafi
1aaafn

#115000
0aaafn

#120000
b101 aaaeu
b1 aaaev
b101 aaaew
b101 aaafg
b1 aaafh
b101 aaafi
1aaafn

#125000
0aaafn

#130000
b110 aaaeu
b0 aaaev
b110 aaaew
b110 aaafg
b0 aaafh
b110 aaafi
1aaafn

#135000
0aaafn

#140000
b1 aaaet
b111 aaaeu
b1 aaaev
b111 aaaew
b1 aaaff
b111 aaafg
b1 aaafh
b111 aaafi
1aaafn

#145000
0aaafn

#150000
b0 aaaet
b1000 aaaeu
b0 aaaev
b1000 aaaew
b0 aaaff
b1000 aaafg
b0 aaafh
b1000 aaafi
1aaafn

#155000
0aaafn

#160000
b1001 aaaeu
b1001 aaaew
b1001 aaafg
b1001 aaafi
1aaafn

#165000
0aaafn

#170000
b1 aaaet
b1010 aaaeu
b1 aaaev
b1010 aaaew
b1 aaaff
b1010 aaafg
b1 aaafh
b1010 aaafi
1aaafn

#175000
0aaafn

#180000
b0 aaaet
b1011 aaaeu
b0 aaaev
b1011 aaaew
b0 aaaff
b1011 aaafg
b0 aaafh
b1011 aaafi
1aaafn

#185000
0aaafn

#190000
b1 aaaet
b1100 aaaeu
b1100 aaaew
b1 aaaff
b1100 aaafg
b1100 aaafi
1aaafn

#195000
0aaafn

#200000
b1101 aaaeu
b1101 aaaew
b1101 aaafg
b1101 aaafi
1aaafn

#205000
0aaafn

#210000
b0 aaaet
b1110 aaaeu
b1 aaaev
b1110 aaaew
b0 aaaff
b1110 aaafg
b1 aaafh
b1110 aaafi
1aaafn

#215000
0aaafn

#220000
b1111 aaaeu
b1111 aaaew
b1111 aaafg
b1111 aaafi
1aaafn

#225000
0aaafn

#230000
b10000 aaaeu
b0 aaaev
b10000 aaaew
b10000 aaafg
b0 aaafh
b10000 aaafi
1aaafn

#235000
0aaafn

#240000
b1 aaaet
b10001 aaaeu
b10001 aaaew
b1 aaaff
b10001 aaafg
b10001 aaafi
1aaafn

#245000
0aaafn

#250000
b0 aaaet
b10010 aaaeu
b1 aaaev
b10010 aaaew
b0 aaaff
b10010 aaafg
b1 aaafh
b10010 aaafi
1aaafn

#255000
0aaafn

#260000
b1 aaaet
b10011 aaaeu
b10011 aaaew
b1 aaaff
b10011 aaafg
b10011 aaafi
1aaafn

#265000
0aaafn

#270000
b10100 aaaeu
b10100 aaaew
b10100 aaafg
b10100 aaafi
1aaafn

#275000
0aaafn

#280000
b10101 aaaeu
b0 aaaev
b10101 aaaew
b10101 aaafg
b0 aaafh
b10101 aaafi
1aaafn

#285000
0aaafn

#290000
b10110 aaaeu
b1 aaaev
b10110 aaaew
b10110 aaafg
b1 aaafh
b10110 aaafi
1aaafn

#295000
0aaafn

#300000
b10111 aaaeu
b0 aaaev
b10111 aaaew
b10111 aaafg
b0 aaafh
b10111 aaafi
1aaafn

#305000
0aaafn

#310000
b0 aaaet
b11000 aaaeu
b1 aaaev
b11000 aaaew
b0 aaaff
b11000 aaafg
b1 aaafh
b11000 aaafi
1aaafn

#315000
0aaafn

#320000
b11001 aaaeu
b0 aaaev
b11001 aaaew
b11001 aaafg
b0 aaafh
b11001 aaafi
1aaafn

#325000
0aaafn

#330000
b1 aaaet
b11010 aaaeu
b11010 aaaew
b1 aaaff
b11010 aaafg
b11010 aaafi
1aaafn

#335000
0aaafn

#340000
b0 aaaet
b11011 aaaeu
b11011 aaaew
b0 aaaff
b11011 aaafg
b11011 aaafi
1aaafn

#345000
0aaafn

#350000
b11100 aaaeu
b1 aaaev
b11100 aaaew
b11100 aaafg
b1 aaafh
b11100 aaafi
1aaafn

#355000
0aaafn

#360000
b11101 aaaeu
b0 aaaev
b11101 aaaew
b11101 aaafg
b0 aaafh
b11101 aaafi
1aaafn

#365000
0aaafn

#370000
b11110 aaaeu
b11110 aaaew
b11110 aaafg
b11110 aaafi
1aaafn

#375000
0aaafn

#380000
b1 aaaet
b11111 aaaeu
b11111 aaaew
b1 aaaff
b11111 aaafg
b11111 aaafi
1aaafn

#385000
0aaafn

#390000
b100000 aaaeu
b100000 aaaew
b100000 aaafg
b100000 aaafi
1aaafn

#395000
0aaafn

#400000
b0 aaaet
b100001 aaaeu
b1 aaaev
b100001 aaaew
b0 aaaff
b100001 aaafg
b1 aaafh
b100001 aaafi
1aaafn

#405000
0aaafn

#410000
b1 aaaet
b100010 aaaeu
b0 aaaev
b100010 aaaew
b1 aaaff
b100010 aaafg
b0 aaafh
b100010 aaafi
1aaafn

#415000
0aaafn

#420000
b0 aaaet
b100011 aaaeu
b100011 aaaew
b0 aaaff
b100011 aaafg
b100011 aaafi
1aaafn

#425000
0aaafn

#430000
b100100 aaaeu
b1 aaaev
b100100 aaaew
b100100 aaafg
b1 aaafh
b100100 aaafi
1aaafn

#435000
0aaafn

#440000
b1 aaaet
b100101 aaaeu
b100101 aaaew
b1 aaaff
b100101 aaafg
b100101 aaafi
1aaafn

#445000
0aaafn

#450000
b100110 aaaeu
b0 aaaev
b100110 aaaew
b100110 aaafg
b0 aaafh
b100110 aaafi
1aaafn

#455000
0aaafn

#460000
b0 aaaet
b100111 aaaeu
b100111 aaaew
b0 aaaff
b100111 aaafg
b100111 aaafi
1aaafn

#465000
0aaafn

#470000
b1 aaaet
b101000 aaaeu
b1 aaaev
b101000 aaaew
b1 aaaff
b101000 aaafg
b1 aaafh
b101000 aaafi
1aaafn

#475000
0aaafn

#480000
b101001 aaaeu
b101001 aaaew
b101001 aaafg
b101001 aaafi
1aaafn

#485000
0aaafn

#490000
b101010 aaaeu
b0 aaaev
b101010 aaaew
b101010 aaafg
b0 aaafh
b101010 aaafi
1aaafn

#495000
0aaafn

#500000
b101011 aaaeu
b101011 aaaew
b101011 aaafg
b101011 aaafi
1aaafn

#505000
0aaafn

#510000
b101100 aaaeu
b1 aaaev
b101100 aaaew
b101100 aaafg
b1 aaafh
b101100 aaafi
1aaafn

#515000
0aaafn

#520000
b0 aaaet
b101101 aaaeu
b101101 aaaew
b0 aaaff
b101101 aaafg
b101101 aaafi
1aaafn

#525000
0aaafn

#530000
b101110 aaaeu
b101110 aaaew
b101110 aaafg
b101110 aaafi
1aaafn

#535000
0aaafn

#540000
b101111 aaaeu
b101111 aaaew
b101111 aaafg
b101111 aaafi
1aaafn

#545000
0aaafn

#550000
b110000 aaaeu
b0 aaaev
b110000 aaaew
b110000 aaafg
b0 aaafh
b110000 aaafi
1aaafn

#555000
0aaafn

#560000
b1 aaaet
b110001 aaaeu
b1 aaaev
b110001 aaaew
b1 aaaff
b110001 aaafg
b1 aaafh
b110001 aaafi
1aaafn

#565000
0aaafn

#570000
b0 aaaet
b110010 aaaeu
b0 aaaev
b110010 aaaew
b0 aaaff
b110010 aaafg
b0 aaafh
b110010 aaafi
1aaafn

#575000
0aaafn

#580000
b1 aaaet
b110011 aaaeu
b110011 aaaew
b1 aaaff
b110011 aaafg
b110011 aaafi
1aaafn

#585000
0aaafn

#590000
b110100 aaaeu
b1 aaaev
b110100 aaaew
b110100 aaafg
b1 aaafh
b110100 aaafi
1aaafn

#595000
0aaafn

#600000
b110101 aaaeu
b110101 aaaew
b110101 aaafg
b110101 aaafi
1aaafn

#605000
0aaafn

#610000
b110110 aaaeu
b0 aaaev
b110110 aaaew
b110110 aaafg
b0 aaafh
b110110 aaafi
1aaafn

#615000
0aaafn

#620000
b110111 aaaeu
b110111 aaaew
b110111 aaafg
b110111 aaafi
1aaafn

#625000
0aaafn

#630000
b111000 aaaeu
b111000 aaaew
b111000 aaafg
b111000 aaafi
1aaafn

#635000
0aaafn

#640000
b111001 aaaeu
b1 aaaev
b111001 aaaew
b111001 aaafg
b1 aaafh
b111001 aaafi
1aaafn

#645000
0aaafn

#650000
b0 aaaet
b111010 aaaeu
b0 aaaev
b111010 aaaew
b0 aaaff
b111010 aaafg
b0 aaafh
b111010 aaafi
1aaafn

#655000
0aaafn

#660000
b1 aaaet
b111011 aaaeu
b111011 aaaew
b1 aaaff
b111011 aaafg
b111011 aaafi
1aaafn

#665000
0aaafn

#670000
b111100 aaaeu
b1 aaaev
b111100 aaaew
b111100 aaafg
b1 aaafh
b111100 aaafi
1aaafn

#675000
0aaafn

#680000
b111101 aaaeu
b111101 aaaew
b111101 aaafg
b111101 aaafi
1aaafn

#685000
0aaafn

#690000
b0 aaaet
b111110 aaaeu
b0 aaaev
b111110 aaaew
b0 aaaff
b111110 aaafg
b0 aaafh
b111110 aaafi
1aaafn

#695000
0aaafn

#700000
b111111 aaaeu
b1 aaaev
b111111 aaaew
b111111 aaafg
b1 aaafh
b111111 aaafi
1aaafn

#705000
0aaafn

#710000
b1000000 aaaeu
b1000000 aaaew
b1000000 aaafg
b1000000 aaafi
1aaafn

#715000
0aaafn

#720000
b1 aaaet
b1000001 aaaeu
b0 aaaev
b1000001 aaaew
b1 aaaff
b1000001 aaafg
b0 aaafh
b1000001 aaafi
1aaafn

#725000
0aaafn

#730000
b1000010 aaaeu
b1 aaaev
b1000010 aaaew
b1000010 aaafg
b1 aaafh
b1000010 aaafi
1aaafn

#735000
0aaafn

#740000
b1000011 aaaeu
b1000011 aaaew
b1000011 aaafg
b1000011 aaafi
1aaafn

#745000
0aaafn

#750000
b0 aaaet
b1000100 aaaeu
b0 aaaev
b1000100 aaaew
b0 aaaff
b1000100 aaafg
b0 aaafh
b1000100 aaafi
1aaafn

#755000
0aaafn

#760000
b1000101 aaaeu
b1 aaaev
b1000101 aaaew
b1000101 aaafg
b1 aaafh
b1000101 aaafi
1aaafn

#765000
0aaafn

#770000
b1 aaaet
b1000110 aaaeu
b1000110 aaaew
b1 aaaff
b1000110 aaafg
b1000110 aaafi
1aaafn

#775000
0aaafn

#780000
b1000111 aaaeu
b0 aaaev
b1000111 aaaew
b1000111 aaafg
b0 aaafh
b1000111 aaafi
1aaafn

#785000
0aaafn

#790000
b0 aaaet
b1001000 aaaeu
b1001000 aaaew
b0 aaaff
b1001000 aaafg
b1001000 aaafi
1aaafn

#795000
0aaafn

#800000
b1 aaaet
b1001001 aaaeu
b1001001 aaaew
b1 aaaff
b1001001 aaafg
b1001001 aaafi
1aaafn

#805000
0aaafn

#810000
b0 aaaet
b1001010 aaaeu
b1 aaaev
b1001010 aaaew
b0 aaaff
b1001010 aaafg
b1 aaafh
b1001010 aaafi
1aaafn

#815000
0aaafn

#820000
b1 aaaet
b1001011 aaaeu
b0 aaaev
b1001011 aaaew
b1 aaaff
b1001011 aaafg
b0 aaafh
b1001011 aaafi
1aaafn

#825000
0aaafn

#830000
b0 aaaet
b1001100 aaaeu
b1001100 aaaew
b0 aaaff
b1001100 aaafg
b1001100 aaafi
1aaafn

#835000
0aaafn

#840000
b1 aaaet
b1001101 aaaeu
b1 aaaev
b1001101 aaaew
b1 aaaff
b1001101 aaafg
b1 aaafh
b1001101 aaafi
1aaafn

#845000
0aaafn

#850000
b0 aaaet
b1001110 aaaeu
b1001110 aaaew
b0 aaaff
b1001110 aaafg
b1001110 aaafi
1aaafn

#855000
0aaafn

#860000
b1 aaaet
b1001111 aaaeu
b0 aaaev
b1001111 aaaew
b1 aaaff
b1001111 aaafg
b0 aaafh
b1001111 aaafi
1aaafn

#865000
0aaafn

#870000
b1010000 aaaeu
b1010000 aaaew
b1010000 aaafg
b1010000 aaafi
1aaafn

#875000
0aaafn

#880000
b1010001 aaaeu
b1 aaaev
b1010001 aaaew
b1010001 aaafg
b1 aaafh
b1010001 aaafi
1aaafn

#885000
0aaafn

#890000
b0 aaaet
b1010010 aaaeu
b1010010 aaaew
b0 aaaff
b1010010 aaafg
b1010010 aaafi
1aaafn

#895000
0aaafn

#900000
b1 aaaet
b1010011 aaaeu
b1010011 aaaew
b1 aaaff
b1010011 aaafg
b1010011 aaafi
1aaafn

#905000
0aaafn

#910000
b0 aaaet
b1010100 aaaeu
b1010100 aaaew
b0 aaaff
b1010100 aaafg
b1010100 aaafi
1aaafn

#915000
0aaafn

#920000
b1 aaaet
b1010101 aaaeu
b1010101 aaaew
b1 aaaff
b1010101 aaafg
b1010101 aaafi
1aaafn

#925000
0aaafn

#930000
b0 aaaet
b1010110 aaaeu
b1010110 aaaew
b0 aaaff
b1010110 aaafg
b1010110 aaafi
1aaafn

#935000
0aaafn

#940000
b1 aaaet
b1010111 aaaeu
b0 aaaev
b1010111 aaaew
b1 aaaff
b1010111 aaafg
b0 aaafh
b1010111 aaafi
1aaafn

#945000
0aaafn

#950000
b0 aaaet
b1011000 aaaeu
b1011000 aaaew
b0 aaaff
b1011000 aaafg
b1011000 aaafi
1aaafn

#955000
0aaafn

#960000
b1 aaaet
b1011001 aaaeu
b1011001 aaaew
b1 aaaff
b1011001 aaafg
b1011001 aaafi
1aaafn

#965000
0aaafn

#970000
b1011010 aaaeu
b1 aaaev
b1011010 aaaew
b1011010 aaafg
b1 aaafh
b1011010 aaafi
1aaafn

#975000
0aaafn

#980000
b1011011 aaaeu
b0 aaaev
b1011011 aaaew
b1011011 aaafg
b0 aaafh
b1011011 aaafi
1aaafn

#985000
0aaafn

#990000
b0 aaaet
b1011100 aaaeu
b1 aaaev
b1011100 aaaew
b0 aaaff
b1011100 aaafg
b1 aaafh
b1011100 aaafi
1aaafn

#995000
0aaafn

#1000000
b1 aaaet
b1011101 aaaeu
b0 aaaev
b1011101 aaaew
b1 aaaff
b1011101 aaafg
b0 aaafh
b1011101 aaafi
1aaafn

#1005000
0aaafn

#1010000
b0 aaaet
b1011110 aaaeu
b1011110 aaaew
b0 aaaff
b1011110 aaafg
b1011110 aaafi
1aaafn

#1015000
0aaafn

#1020000
b1 aaaet
b1011111 aaaeu
b1 aaaev
b1011111 aaaew
b1 aaaff
b1011111 aaafg
b1 aaafh
b1011111 aaafi
1aaafn

#1025000
0aaafn

#1030000
b1100000 aaaeu
b0 aaaev
b1100000 aaaew
b1100000 aaafg
b0 aaafh
b1100000 aaafi
1aaafn

#1035000
0aaafn

#1040000
b0 aaaet
b1100001 aaaeu
b1100001 aaaew
b0 aaaff
b1100001 aaafg
b1100001 aaafi
1aaafn

#1045000
0aaafn

#1050000
b1 aaaet
b1100010 aaaeu
b1 aaaev
b1100010 aaaew
b1 aaaff
b1100010 aaafg
b1 aaafh
b1100010 aaafi
1aaafn

#1055000
0aaafn

#1060000
b1100011 aaaeu
b0 aaaev
b1100011 aaaew
b1100011 aaafg
b0 aaafh
b1100011 aaafi
1aaafn

#1065000
0aaafn

#1070000
b1100100 aaaeu
b1 aaaev
b1100100 aaaew
b1100100 aaafg
b1 aaafh
b1100100 aaafi
1aaafn

#1075000
0aaafn

#1080000
b0 aaaet
b1100101 aaaeu
b0 aaaev
b1100101 aaaew
b0 aaaff
b1100101 aaafg
b0 aaafh
b1100101 aaafi
1aaafn

#1085000
0aaafn

#1090000
b1 aaaet
b1100110 aaaeu
b1 aaaev
b1100110 aaaew
b1 aaaff
b1100110 aaafg
b1 aaafh
b1100110 aaafi
1aaafn

#1095000
0aaafn

#1100000
b1100111 aaaeu
b1100111 aaaew
b1100111 aaafg
b1100111 aaafi
1aaafn

#1105000
0aaafn

#1110000
b0 aaaet
b1101000 aaaeu
b0 aaaev
b1101000 aaaew
b0 aaaff
b1101000 aaafg
b0 aaafh
b1101000 aaafi
1aaafn

#1115000
0aaafn

#1120000
b1101001 aaaeu
b1 aaaev
b1101001 aaaew
b1101001 aaafg
b1 aaafh
b1101001 aaafi
1aaafn

#1125000
0aaafn

#1130000
b1 aaaet
b1101010 aaaeu
b1101010 aaaew
b1 aaaff
b1101010 aaafg
b1101010 aaafi
1aaafn

#1135000
0aaafn

#1140000
b1101011 aaaeu
b1101011 aaaew
b1101011 aaafg
b1101011 aaafi
1aaafn

#1145000
0aaafn

#1150000
b0 aaaet
b1101100 aaaeu
b0 aaaev
b1101100 aaaew
b0 aaaff
b1101100 aaafg
b0 aaafh
b1101100 aaafi
1aaafn

#1155000
0aaafn

#1160000
b1101101 aaaeu
b1 aaaev
b1101101 aaaew
b1101101 aaafg
b1 aaafh
b1101101 aaafi
1aaafn

#1165000
0aaafn

#1170000
b1101110 aaaeu
b1101110 aaaew
b1101110 aaafg
b1101110 aaafi
1aaafn

#1175000
0aaafn

#1180000
b1101111 aaaeu
b0 aaaev
b1101111 aaaew
b1101111 aaafg
b0 aaafh
b1101111 aaafi
1aaafn

#1185000
0aaafn

#1190000
b1110000 aaaeu
b1110000 aaaew
b1110000 aaafg
b1110000 aaafi
1aaafn

#1195000
0aaafn

#1200000
b1110001 aaaeu
b1 aaaev
b1110001 aaaew
b1110001 aaafg
b1 aaafh
b1110001 aaafi
1aaafn

#1205000
0aaafn

#1210000
b1110010 aaaeu
b0 aaaev
b1110010 aaaew
b1110010 aaafg
b0 aaafh
b1110010 aaafi
1aaafn

#1215000
0aaafn

#1220000
b1110011 aaaeu
b1 aaaev
b1110011 aaaew
b1110011 aaafg
b1 aaafh
b1110011 aaafi
1aaafn

#1225000
0aaafn

#1230000
b1 aaaet
b1110100 aaaeu
b1110100 aaaew
b1 aaaff
b1110100 aaafg
b1110100 aaafi
1aaafn

#1235000
0aaafn

#1240000
b1110101 aaaeu
b0 aaaev
b1110101 aaaew
b1110101 aaafg
b0 aaafh
b1110101 aaafi
1aaafn

#1245000
0aaafn

#1250000
b0 aaaet
b1110110 aaaeu
b1110110 aaaew
b0 aaaff
b1110110 aaafg
b1110110 aaafi
1aaafn

#1255000
0aaafn

#1260000
b1 aaaet
b1110111 aaaeu
b1110111 aaaew
b1 aaaff
b1110111 aaafg
b1110111 aaafi
1aaafn

#1265000
0aaafn

#1270000
b0 aaaet
b1111000 aaaeu
b1 aaaev
b1111000 aaaew
b0 aaaff
b1111000 aaafg
b1 aaafh
b1111000 aaafi
1aaafn

#1275000
0aaafn

#1280000
b1 aaaet
b1111001 aaaeu
b0 aaaev
b1111001 aaaew
b1 aaaff
b1111001 aaafg
b0 aaafh
b1111001 aaafi
1aaafn

#1285000
0aaafn

